<?xml version="1.0" encoding="utf-8"?>
<!-- Generator: Adobe Illustrator 15.0.0, SVG Export Plug-In . SVG Version: 6.00 Build 0)  -->
<!DOCTYPE svg PUBLIC "-//W3C//DTD SVG 1.1//EN" "http://www.w3.org/Graphics/SVG/1.1/DTD/svg11.dtd" [
	<!ENTITY ns_extend "http://ns.adobe.com/Extensibility/1.0/">
	<!ENTITY ns_ai "http://ns.adobe.com/AdobeIllustrator/10.0/">
	<!ENTITY ns_graphs "http://ns.adobe.com/Graphs/1.0/">
	<!ENTITY ns_vars "http://ns.adobe.com/Variables/1.0/">
	<!ENTITY ns_imrep "http://ns.adobe.com/ImageReplacement/1.0/">
	<!ENTITY ns_sfw "http://ns.adobe.com/SaveForWeb/1.0/">
	<!ENTITY ns_custom "http://ns.adobe.com/GenericCustomNamespace/1.0/">
	<!ENTITY ns_adobe_xpath "http://ns.adobe.com/XPath/1.0/">
]>
<svg version="1.1" id="Layer_1" xmlns:x="&ns_extend;" xmlns:i="&ns_ai;" xmlns:graph="&ns_graphs;"
	 xmlns="http://www.w3.org/2000/svg" xmlns:xlink="http://www.w3.org/1999/xlink" x="0px" y="0px" width="50px" height="50px"
	 viewBox="0 0 50 50" enable-background="new 0 0 50 50" xml:space="preserve">
<metadata>
	<sfw  xmlns="&ns_sfw;">
		<slices></slices>
		<sliceSourceBounds  x="0" y="-50" width="50" height="50" bottomLeftOrigin="true"></sliceSourceBounds>
	</sfw>
</metadata>
<rect fill="#4BD6C1" width="50" height="50"/>
<g>
	<path fill="#404041" d="M30.5,30.214c-0.125-0.051-0.201-0.082-0.201-0.082s-3.531-1.766-1.767-3.53
		c0.716-0.715,1.132-2.009,1.385-3.411c0.412-0.01,0.958-0.898,1.255-2.09c0.316-1.262,0.232-2.37-0.19-2.475l-0.124,0.005
		c-0.2,2.117-0.941,4.462-1.021,2.616c-0.121-2.733-1.147-4.755-1.974-5.021c-0.833-0.268-1.522,0.568-2.771,0.568
		c-1.244,0-1.935-0.836-2.764-0.568c-0.827,0.267-1.854,2.288-1.97,5.021c-0.083,1.845-0.924-0.498-1.187-2.614l-0.154-0.007
		c-0.422,0.105-0.506,1.212-0.191,2.475c0.298,1.191,0.845,2.08,1.255,2.09c0.254,1.402,0.671,2.696,1.386,3.411
		c1.766,1.765-1.766,3.53-1.766,3.53s-0.078,0.031-0.201,0.082c1.567,1.248,3.459,1.979,5.499,1.979S28.933,31.462,30.5,30.214"/>
	<path fill="#404041" d="M28.534,11.037c0,0-5.915,0.164-7.175,2.263c-0.739,1.228-1.098,1.632-2.012,2.925
		c-0.293,0.42-0.3,1.389-0.175,2.408c0.001,0.006,0.002,0.012,0.002,0.019l0,0c0.001,0.007,0.002,0.013,0.003,0.019
		c0.002,0.024,0.006,0.048,0.01,0.073c0,0.001,0,0.002,0,0.003c0,0.004,0,0.009,0.001,0.012c0.002,0.016,0.004,0.031,0.006,0.047
		c0,0.002,0.001,0.005,0.001,0.007c0,0.004,0,0.007,0.001,0.009c0,0.004,0.001,0.007,0.001,0.011
		c0.163,1.167,0.487,2.361,0.753,2.85c0,0.001,0.002,0.002,0.002,0.004c0.001,0.001,0.002,0.002,0.003,0.004
		c0.001,0.002,0.002,0.003,0.003,0.005c0.005,0.009,0.01,0.018,0.014,0.025c0.057,0.099,0.112,0.163,0.16,0.185l0,0
		c0.001,0.001,0.004,0.002,0.006,0.003s0.004,0.001,0.007,0.002c0,0,0,0,0,0c0,0,0.001,0,0.002,0
		c0.002,0.001,0.003,0.001,0.004,0.001c0.002,0,0.004,0.001,0.006,0.001c0.003,0,0.006,0,0.009,0h0c0.096,0,0.165-0.194,0.187-0.651
		c0-0.003,0-0.005,0-0.009c0-0.002,0.001-0.005,0.001-0.008l0,0c0.116-2.733,1.143-4.755,1.97-5.021l0,0
		c0.114-0.037,0.226-0.053,0.336-0.053h0l0,0l0,0c0,0,0.001,0,0.002,0c0.285,0,0.563,0.104,0.865,0.229
		c0.438,0.177,0.928,0.393,1.56,0.393l0,0c0.628,0,1.113-0.211,1.549-0.387c0.309-0.126,0.592-0.234,0.88-0.234
		c0.001,0,0.002,0,0.003,0l0,0l0,0h0.001c0.111,0,0.222,0.016,0.338,0.053c0.826,0.267,1.853,2.288,1.974,5.021
		c0,0.003,0,0.005,0,0.008c0,0.003,0,0.007,0.001,0.01c0,0.002,0,0.003,0,0.005c0,0.003,0,0.007,0,0.011
		c0.021,0.444,0.084,0.632,0.167,0.633l0,0c0.004,0,0.006,0,0.01,0c0.002,0,0.005,0,0.007-0.001
		c0.026-0.007,0.058-0.033,0.089-0.076c0.001-0.002,0.002-0.003,0.004-0.005c0.001-0.001,0.001-0.003,0.003-0.004l0,0
		c0.003-0.005,0.005-0.008,0.008-0.013c0.001-0.001,0.002-0.002,0.003-0.003l0,0c0.246-0.379,0.579-1.734,0.716-3.04
		c0-0.001,0-0.001,0-0.002c0.001-0.006,0.001-0.013,0.002-0.02c0-0.004,0-0.007,0-0.01c0.001-0.004,0.002-0.007,0.002-0.011
		c0-0.001,0-0.004,0.001-0.006c0.001-0.014,0.003-0.028,0.004-0.043c0.001-0.008,0.002-0.016,0.002-0.024
		c0.001-0.008,0.002-0.016,0.003-0.023l0,0c0.096-1.019,0.064-1.985-0.229-2.405c-0.913-1.292-0.99-2.43-2.375-2.923
		C26.873,12.809,28.534,11.037,28.534,11.037"/>
	<path fill="#404041" d="M31.525,30.643l-0.419,0.333c-1.8,1.434-3.912,2.191-6.106,2.191s-4.307-0.758-6.106-2.191l-0.419-0.333
		c-1.713,0.729-4.75,2.091-5.837,3.022c-1.546,1.325-1.766,5.298-1.766,5.298H25h14.13c0,0-0.221-3.973-1.767-5.298
		C36.276,32.733,33.238,31.372,31.525,30.643"/>
</g>
</svg>
